…
For each (airport, day) contruct a tidy data set of the airport’s
“performance” as the proportion of flights that departed less than an
hour late.

    df5 <- flights %>% mutate(day_of_year = yday(time_hour)) %>% select(origin, day_of_year, dep_delay) 
    df6 <- df5 %>% group_by(origin, day_of_year) %>% summarise(performance = sum(dep_delay < 60, na.rm = T)/n())
    df6

    ## # A tibble: 1,095 x 3
    ## # Groups:   origin [3]
    ##    origin day_of_year performance
    ##    <chr>        <dbl>       <dbl>
    ##  1 EWR              1       0.915
    ##  2 EWR              2       0.823
    ##  3 EWR              3       0.970
    ##  4 EWR              4       0.929
    ##  5 EWR              5       0.962
    ##  6 EWR              6       0.947
    ##  7 EWR              7       0.921
    ##  8 EWR              8       0.976
    ##  9 EWR              9       0.973
    ## 10 EWR             10       0.977
    ## # ... with 1,085 more rows

Construct a tidy data set to that give weather summaries for each
(airport, day). Use the total precipitation, minimum visibility, maximum
wind\_gust, and average wind\_speed.

    df7 <- df %>% select(origin, day_of_year, precip, visib, wind_gust, wind_speed)
    df8 <- df7 %>% group_by(origin, day_of_year) %>% summarise(total_precipitation = sum(precip), minimum_visibility = min(visib), maximum_wind_gust = max(wind_gust, na.rm = T), average_wind_speed = mean(wind_speed))
    df8 <- df8[!is.infinite(df8$maximum_wind_gust),]
    df8

    ## # A tibble: 797 x 6
    ## # Groups:   origin [3]
    ##    origin day_of_year total_precipita~ minimum_visibil~ maximum_wind_gu~
    ##    <chr>        <dbl>            <dbl>            <dbl>            <dbl>
    ##  1 EWR              1             0                10               26.5
    ##  2 EWR              2             0                10               26.5
    ##  3 EWR              4             0                10               31.1
    ##  4 EWR              5             0                10               26.5
    ##  5 EWR              6             0                 6               19.6
    ##  6 EWR              7             0                10               24.2
    ##  7 EWR              8             0                 8               25.3
    ##  8 EWR              9             0                 6               20.7
    ##  9 EWR             10             0                10               26.5
    ## 10 EWR             14             0.06              0.5             27.6
    ## # ... with 787 more rows, and 1 more variable: average_wind_speed <dbl>

Construct a linear model to predict the performance of each
(airport,day) using the weather summaries and a “fixed effect” for each
airport. Display the summaries.

    df9 <- inner_join(df6, df8)

    ## Joining, by = c("origin", "day_of_year")

    df9

    ## # A tibble: 797 x 7
    ## # Groups:   origin [3]
    ##    origin day_of_year performance total_precipita~ minimum_visibil~
    ##    <chr>        <dbl>       <dbl>            <dbl>            <dbl>
    ##  1 EWR              1       0.915             0                10  
    ##  2 EWR              2       0.823             0                10  
    ##  3 EWR              4       0.929             0                10  
    ##  4 EWR              5       0.962             0                10  
    ##  5 EWR              6       0.947             0                 6  
    ##  6 EWR              7       0.921             0                10  
    ##  7 EWR              8       0.976             0                 8  
    ##  8 EWR              9       0.973             0                 6  
    ##  9 EWR             10       0.977             0                10  
    ## 10 EWR             14       0.985             0.06              0.5
    ## # ... with 787 more rows, and 2 more variables: maximum_wind_gust <dbl>,
    ## #   average_wind_speed <dbl>
…
